{
  "npmScope": "monorepo",
  "implicitDependencies": {
    "angular.json": "*",
    "package.json": "*",
    "tsconfig.json": "*",
    "tslint.json": "*",
    "nx.json": "*"
  },
  "projects": {
    "rosa-e2e": {
      "tags": []
    },
    "rosa": {
      "tags": []
    },
    "api": {
      "tags": []
    },
    "api-interfaces": {
      "tags": []
    },
    "ui": {
      "tags": []
    },
    "data": {
      "tags": []
    },
    "defence-e2e": {
      "tags": []
    },
    "defence": {
      "tags": []
    }
  }
}
